[2014-08-11 05:08:33.461] [INFO] server - express loaded
[2014-08-11 05:08:33.461] [INFO] server - routes are loaded
[2014-08-11 05:08:33.493] [INFO] server - http server started
[2014-08-11 05:08:36.969] [INFO] server - Route Sub System: EMAIL
Method: POST
URL:/email/insert/request/with_query
[2014-08-11 05:10:10.795] [INFO] server - express loaded
[2014-08-11 05:10:10.796] [INFO] server - routes are loaded
[2014-08-11 05:10:10.832] [INFO] server - http server started
[2014-08-11 05:10:16.424] [INFO] server - Route Sub System: EMAIL
Method: POST
URL:/email/insert/request/with_query
[2014-08-11 05:11:40.468] [INFO] server - express loaded
[2014-08-11 05:11:40.469] [INFO] server - routes are loaded
[2014-08-11 05:11:40.502] [INFO] server - http server started
[2014-08-11 05:12:06.442] [INFO] server - express loaded
[2014-08-11 05:12:06.443] [INFO] server - routes are loaded
[2014-08-11 05:12:06.478] [INFO] server - http server started
[2014-08-11 05:12:13.911] [INFO] server - Route Sub System: EMAIL
Method: POST
URL:/email/insert/request/with_query
[2014-08-11 05:19:51.623] [INFO] server - express loaded
[2014-08-11 05:19:51.624] [INFO] server - routes are loaded
[2014-08-11 05:19:51.660] [INFO] server - http server started
[2014-08-11 05:20:09.276] [INFO] server - Route Sub System: EMAIL
Method: POST
URL:/email/insert/request/with_query
[2014-08-11 05:21:11.839] [INFO] server - express loaded
[2014-08-11 05:21:11.840] [INFO] server - routes are loaded
[2014-08-11 05:21:11.871] [INFO] server - http server started
[2014-08-11 05:21:17.753] [INFO] server - Route Sub System: EMAIL
Method: POST
URL:/email/insert/request/with_query
[2014-08-11 05:24:01.176] [INFO] server - express loaded
[2014-08-11 05:24:01.177] [INFO] server - routes are loaded
[2014-08-11 05:24:01.208] [INFO] server - http server started
[2014-08-11 05:24:05.673] [INFO] server - Route Sub System: EMAIL
Method: POST
URL:/email/insert/request/with_query
[2014-08-11 05:27:35.078] [INFO] server - express loaded
[2014-08-11 05:27:35.079] [INFO] server - routes are loaded
[2014-08-11 05:27:35.112] [INFO] server - http server started
[2014-08-11 05:27:46.422] [INFO] server - Route Sub System: EMAIL
Method: POST
URL:/email/insert/request/with_query
[2014-08-11 05:30:01.837] [INFO] server - express loaded
[2014-08-11 05:30:01.838] [INFO] server - routes are loaded
[2014-08-11 05:30:01.870] [INFO] server - http server started
[2014-08-11 05:30:04.801] [INFO] server - Route Sub System: EMAIL
Method: POST
URL:/email/insert/request/with_query
[2014-08-11 05:30:44.550] [INFO] server - express loaded
[2014-08-11 05:30:44.551] [INFO] server - routes are loaded
[2014-08-11 05:30:44.581] [INFO] server - http server started
[2014-08-11 05:30:52.355] [INFO] server - Route Sub System: EMAIL
Method: POST
URL:/email/insert/request/with_query
[2014-08-11 05:37:52.705] [INFO] server - express loaded
[2014-08-11 05:37:52.706] [INFO] server - routes are loaded
[2014-08-11 05:37:52.736] [INFO] server - http server started
[2014-08-11 05:37:57.502] [INFO] server - Route Sub System: EMAIL
Method: POST
URL:/email/insert/request/with_query
[2014-08-11 05:39:43.699] [INFO] server - express loaded
[2014-08-11 05:39:43.700] [INFO] server - routes are loaded
[2014-08-11 05:39:43.738] [INFO] server - http server started
[2014-08-11 05:39:55.106] [INFO] server - Route Sub System: EMAIL
Method: POST
URL:/email/insert/request/with_query
[2014-08-11 05:47:52.115] [INFO] server - express loaded
[2014-08-11 05:47:52.116] [INFO] server - routes are loaded
[2014-08-11 05:47:52.150] [INFO] server - http server started
[2014-08-11 05:47:57.573] [INFO] server - Route Sub System: EMAIL
Method: POST
URL:/email/insert/request/with_query
[2014-08-11 05:48:33.599] [INFO] server - express loaded
[2014-08-11 05:48:33.600] [INFO] server - routes are loaded
[2014-08-11 05:48:33.633] [INFO] server - http server started
[2014-08-11 05:48:38.682] [INFO] server - Route Sub System: EMAIL
Method: POST
URL:/email/insert/request/with_query
[2014-08-11 05:49:57.423] [INFO] server - express loaded
[2014-08-11 05:49:57.424] [INFO] server - routes are loaded
[2014-08-11 05:49:57.458] [INFO] server - http server started
[2014-08-11 05:50:02.003] [INFO] server - Route Sub System: EMAIL
Method: POST
URL:/email/insert/request/with_query
[2014-08-11 05:53:01.058] [INFO] server - express loaded
[2014-08-11 05:53:01.059] [INFO] server - routes are loaded
[2014-08-11 05:53:01.095] [INFO] server - http server started
[2014-08-11 05:53:10.102] [INFO] server - Route Sub System: EMAIL
Method: POST
URL:/email/insert/request/with_query
[2014-08-11 06:01:34.105] [INFO] server - express loaded
[2014-08-11 06:01:34.105] [INFO] server - routes are loaded
[2014-08-11 06:01:34.140] [INFO] server - http server started
[2014-08-11 06:01:38.384] [INFO] server - Route Sub System: EMAIL
Method: POST
URL:/email/insert/request/with_query
[2014-08-11 06:03:33.565] [INFO] server - express loaded
[2014-08-11 06:03:33.566] [INFO] server - routes are loaded
[2014-08-11 06:03:33.597] [INFO] server - http server started
[2014-08-11 06:04:07.622] [INFO] server - Route Sub System: EMAIL
Method: POST
URL:/email/insert/request/with_query
[2014-08-11 06:10:02.932] [INFO] server - express loaded
[2014-08-11 06:10:02.933] [INFO] server - routes are loaded
[2014-08-11 06:10:02.967] [INFO] server - http server started
[2014-08-11 06:10:08.569] [INFO] server - Route Sub System: EMAIL
Method: POST
URL:/email/insert/request/with_query
[2014-08-11 08:08:52.735] [INFO] server - express loaded
[2014-08-11 08:08:52.736] [INFO] server - routes are loaded
[2014-08-11 08:08:52.772] [INFO] server - http server started
[2014-08-11 08:09:01.949] [INFO] server - Route Sub System: EMAIL
Method: POST
URL:/email/insert/request/with_query
[2014-08-11 08:09:37.382] [INFO] server - express loaded
[2014-08-11 08:09:37.383] [INFO] server - routes are loaded
[2014-08-11 08:09:37.414] [INFO] server - http server started
[2014-08-11 08:09:40.819] [INFO] server - Route Sub System: EMAIL
Method: POST
URL:/email/insert/request/with_query
[2014-08-11 08:10:13.993] [INFO] server - express loaded
[2014-08-11 08:10:13.993] [INFO] server - routes are loaded
[2014-08-11 08:10:14.026] [INFO] server - http server started
[2014-08-11 08:10:19.005] [INFO] server - Route Sub System: EMAIL
Method: POST
URL:/email/insert/request/with_query
[2014-08-11 08:11:43.201] [INFO] server - express loaded
[2014-08-11 08:11:43.202] [INFO] server - routes are loaded
[2014-08-11 08:11:43.234] [INFO] server - http server started
[2014-08-11 08:11:45.939] [INFO] server - Route Sub System: EMAIL
Method: POST
URL:/email/insert/request/with_query
[2014-08-11 08:16:47.376] [INFO] server - express loaded
[2014-08-11 08:16:47.377] [INFO] server - routes are loaded
[2014-08-11 08:16:47.408] [INFO] server - http server started
[2014-08-11 08:16:54.277] [INFO] server - Route Sub System: EMAIL
Method: POST
URL:/email/insert/request/with_query
[2014-08-11 08:22:09.049] [INFO] server - express loaded
[2014-08-11 08:22:09.050] [INFO] server - routes are loaded
[2014-08-11 08:22:09.081] [INFO] server - http server started
[2014-08-11 08:22:22.078] [INFO] server - Route Sub System: EMAIL
Method: POST
URL:/email/insert/request/with_query
[2014-08-11 08:24:51.662] [INFO] server - express loaded
[2014-08-11 08:24:51.662] [INFO] server - routes are loaded
[2014-08-11 08:24:51.694] [INFO] server - http server started
[2014-08-11 08:24:54.943] [INFO] server - Route Sub System: EMAIL
Method: POST
URL:/email/insert/request/with_query
[2014-08-11 08:28:40.972] [INFO] server - express loaded
[2014-08-11 08:28:40.972] [INFO] server - routes are loaded
[2014-08-11 08:28:41.003] [INFO] server - http server started
[2014-08-11 08:28:51.057] [INFO] server - Route Sub System: EMAIL
Method: POST
URL:/email/insert/request/with_query
[2014-08-11 08:30:57.457] [INFO] server - express loaded
[2014-08-11 08:30:57.457] [INFO] server - routes are loaded
[2014-08-11 08:30:57.489] [INFO] server - http server started
[2014-08-11 08:31:00.910] [INFO] server - Route Sub System: EMAIL
Method: POST
URL:/email/insert/request/with_query
[2014-08-11 08:34:33.382] [INFO] server - express loaded
[2014-08-11 08:34:33.382] [INFO] server - routes are loaded
[2014-08-11 08:34:33.412] [INFO] server - http server started
[2014-08-11 08:34:38.323] [INFO] server - Route Sub System: EMAIL
Method: POST
URL:/email/insert/request/with_query
[2014-08-11 08:36:09.948] [INFO] server - express loaded
[2014-08-11 08:36:09.948] [INFO] server - routes are loaded
[2014-08-11 08:36:09.979] [INFO] server - http server started
[2014-08-11 08:36:12.922] [INFO] server - Route Sub System: EMAIL
Method: POST
URL:/email/insert/request/with_query
[2014-08-11 08:43:07.758] [INFO] server - express loaded
[2014-08-11 08:43:07.759] [INFO] server - routes are loaded
[2014-08-11 08:43:07.791] [INFO] server - http server started
[2014-08-11 08:43:12.976] [INFO] server - Route Sub System: EMAIL
Method: POST
URL:/email/insert/request/with_query
[2014-08-11 08:48:52.780] [INFO] server - express loaded
[2014-08-11 08:48:52.781] [INFO] server - routes are loaded
[2014-08-11 08:48:52.824] [INFO] server - http server started
[2014-08-11 08:48:56.706] [INFO] server - Route Sub System: EMAIL
Method: POST
URL:/email/insert/request/with_query
[2014-08-11 08:53:50.518] [INFO] server - express loaded
[2014-08-11 08:53:50.519] [INFO] server - routes are loaded
[2014-08-11 08:53:50.550] [INFO] server - http server started
[2014-08-11 08:53:57.937] [INFO] server - Route Sub System: EMAIL
Method: POST
URL:/email/insert/request/with_query
[2014-08-11 09:02:43.530] [INFO] server - express loaded
[2014-08-11 09:02:43.531] [INFO] server - routes are loaded
[2014-08-11 09:02:43.568] [INFO] server - http server started
[2014-08-11 09:02:48.161] [INFO] server - Route Sub System: EMAIL
Method: POST
URL:/email/insert/request/with_query
[2014-08-11 09:04:36.543] [INFO] server - express loaded
[2014-08-11 09:04:36.543] [INFO] server - routes are loaded
[2014-08-11 09:04:36.576] [INFO] server - http server started
[2014-08-11 09:05:29.093] [INFO] server - Route Sub System: EMAIL
Method: POST
URL:/email/insert/request/with_query
[2014-08-11 09:07:34.979] [INFO] server - express loaded
[2014-08-11 09:07:34.980] [INFO] server - routes are loaded
[2014-08-11 09:07:35.010] [INFO] server - http server started
[2014-08-11 09:08:29.607] [INFO] server - Route Sub System: EMAIL
Method: POST
URL:/email/insert/request/with_query
[2014-08-11 09:11:17.160] [INFO] server - express loaded
[2014-08-11 09:11:17.161] [INFO] server - routes are loaded
[2014-08-11 09:11:17.203] [INFO] server - http server started
[2014-08-11 09:11:22.993] [INFO] server - Route Sub System: EMAIL
Method: POST
URL:/email/insert/request/with_query
[2014-08-11 09:12:33.549] [INFO] server - express loaded
[2014-08-11 09:12:33.550] [INFO] server - routes are loaded
[2014-08-11 09:12:33.582] [INFO] server - http server started
[2014-08-11 09:12:37.782] [INFO] server - Route Sub System: EMAIL
Method: POST
URL:/email/insert/request/with_query
[2014-08-11 09:13:45.841] [INFO] server - express loaded
[2014-08-11 09:13:45.842] [INFO] server - routes are loaded
[2014-08-11 09:13:45.878] [INFO] server - http server started
[2014-08-11 09:13:47.185] [INFO] server - Route Sub System: EMAIL
Method: POST
URL:/email/insert/request/with_query
[2014-08-11 09:15:55.484] [INFO] server - express loaded
[2014-08-11 09:15:55.484] [INFO] server - routes are loaded
[2014-08-11 09:15:55.515] [INFO] server - http server started
[2014-08-11 09:16:02.104] [INFO] server - Route Sub System: EMAIL
Method: POST
URL:/email/insert/request/with_query
[2014-08-11 09:16:54.289] [INFO] server - Route Sub System: EMAIL
Method: POST
URL:/email/insert/request/with_query
[2014-08-11 09:18:05.724] [INFO] server - express loaded
[2014-08-11 09:18:05.725] [INFO] server - routes are loaded
[2014-08-11 09:18:05.757] [INFO] server - http server started
[2014-08-11 09:18:16.256] [INFO] server - Route Sub System: EMAIL
Method: POST
URL:/email/insert/request/with_query
[2014-08-11 09:22:52.334] [INFO] server - express loaded
[2014-08-11 09:22:52.335] [INFO] server - routes are loaded
[2014-08-11 09:22:52.367] [INFO] server - http server started
[2014-08-11 09:22:57.147] [INFO] server - Route Sub System: EMAIL
Method: POST
URL:/email/insert/request/with_query
[2014-08-11 09:23:40.938] [INFO] server - express loaded
[2014-08-11 09:23:40.939] [INFO] server - routes are loaded
[2014-08-11 09:23:40.995] [INFO] server - http server started
[2014-08-11 09:23:47.591] [INFO] server - Route Sub System: EMAIL
Method: POST
URL:/email/insert/request/with_query
[2014-08-11 09:25:02.005] [INFO] server - express loaded
[2014-08-11 09:25:02.006] [INFO] server - routes are loaded
[2014-08-11 09:25:02.037] [INFO] server - http server started
[2014-08-11 09:27:01.108] [INFO] server - express loaded
[2014-08-11 09:27:01.108] [INFO] server - routes are loaded
[2014-08-11 09:27:01.141] [INFO] server - http server started
[2014-08-11 09:27:04.513] [INFO] server - Route Sub System: EMAIL
Method: POST
URL:/email/insert/request/with_query
[2014-08-11 09:28:21.426] [INFO] server - express loaded
[2014-08-11 09:28:21.426] [INFO] server - routes are loaded
[2014-08-11 09:28:21.459] [INFO] server - http server started
[2014-08-11 09:28:24.256] [INFO] server - Route Sub System: EMAIL
Method: POST
URL:/email/insert/request/with_query
[2014-08-12 05:06:05.132] [INFO] server - express loaded
[2014-08-12 05:06:05.133] [INFO] server - routes are loaded
[2014-08-12 05:06:05.164] [INFO] server - http server started
[2014-08-12 05:06:11.588] [INFO] server - Route Sub System: EMAIL
Method: POST
URL:/email/insert/request/with_query
[2014-08-12 05:24:19.396] [INFO] server - express loaded
[2014-08-12 05:24:19.396] [INFO] server - routes are loaded
[2014-08-12 05:24:19.432] [INFO] server - http server started
[2014-08-12 05:24:35.932] [INFO] server - Route Sub System: EMAIL
Method: POST
URL:/email/insert/request/with_query
[2014-08-12 05:27:14.500] [INFO] server - express loaded
[2014-08-12 05:27:14.500] [INFO] server - routes are loaded
[2014-08-12 05:27:14.535] [INFO] server - http server started
[2014-08-12 05:27:17.731] [INFO] server - Route Sub System: EMAIL
Method: POST
URL:/email/insert/request/with_query
[2014-08-12 05:36:14.960] [INFO] server - express loaded
[2014-08-12 05:36:14.961] [INFO] server - routes are loaded
[2014-08-12 05:36:14.994] [INFO] server - http server started
[2014-08-12 05:36:19.069] [INFO] server - Route Sub System: EMAIL
Method: POST
URL:/email/insert/request/with_query
[2014-08-12 05:37:15.086] [INFO] server - express loaded
[2014-08-12 05:37:15.086] [INFO] server - routes are loaded
[2014-08-12 05:37:15.122] [INFO] server - http server started
[2014-08-12 05:37:25.342] [INFO] server - express loaded
[2014-08-12 05:37:25.343] [INFO] server - routes are loaded
[2014-08-12 05:37:25.374] [INFO] server - http server started
[2014-08-12 05:37:31.619] [INFO] server - Route Sub System: EMAIL
Method: POST
URL:/email/insert/request/with_query
[2014-08-12 05:38:41.018] [INFO] server - express loaded
[2014-08-12 05:38:41.018] [INFO] server - routes are loaded
[2014-08-12 05:38:41.049] [INFO] server - http server started
[2014-08-12 05:38:45.300] [INFO] server - Route Sub System: EMAIL
Method: POST
URL:/email/insert/request/with_query
[2014-08-12 05:51:38.952] [INFO] server - express loaded
[2014-08-12 05:51:38.953] [INFO] server - routes are loaded
[2014-08-12 05:51:38.986] [INFO] server - http server started
[2014-08-12 05:51:45.510] [INFO] server - Route Sub System: EMAIL
Method: POST
URL:/email/insert/request/with_query
[2014-08-12 05:53:44.047] [INFO] server - express loaded
[2014-08-12 05:53:44.047] [INFO] server - routes are loaded
[2014-08-12 05:53:44.080] [INFO] server - http server started
[2014-08-12 05:53:44.183] [INFO] server - Route Sub System: EMAIL
Method: POST
URL:/email/insert/request/with_query
[2014-08-12 05:56:59.291] [INFO] server - express loaded
[2014-08-12 05:56:59.292] [INFO] server - routes are loaded
[2014-08-12 05:56:59.323] [INFO] server - http server started
[2014-08-12 05:57:02.971] [INFO] server - Route Sub System: EMAIL
Method: POST
URL:/email/insert/request/with_query
[2014-08-12 05:59:58.049] [INFO] server - express loaded
[2014-08-12 05:59:58.050] [INFO] server - routes are loaded
[2014-08-12 05:59:58.086] [INFO] server - http server started
[2014-08-12 06:00:01.163] [INFO] server - Route Sub System: EMAIL
Method: POST
URL:/email/insert/request/with_query
[2014-08-12 06:02:26.971] [INFO] server - express loaded
[2014-08-12 06:02:26.972] [INFO] server - routes are loaded
[2014-08-12 06:02:27.009] [INFO] server - http server started
[2014-08-12 06:02:30.337] [INFO] server - Route Sub System: EMAIL
Method: POST
URL:/email/insert/request/with_query
[2014-08-12 06:08:37.493] [INFO] server - express loaded
[2014-08-12 06:08:37.494] [INFO] server - routes are loaded
[2014-08-12 06:08:37.524] [INFO] server - http server started
[2014-08-12 06:08:40.862] [INFO] server - Route Sub System: EMAIL
Method: POST
URL:/email/insert/request/with_query
[2014-08-12 07:49:33.090] [INFO] server - express loaded
[2014-08-12 07:49:33.091] [INFO] server - routes are loaded
[2014-08-12 07:49:33.123] [INFO] server - http server started
[2014-08-12 07:49:42.547] [INFO] server - Route Sub System: EMAIL
Method: POST
URL:/email/insert/request/with_query
[2014-08-12 07:50:25.759] [INFO] server - express loaded
[2014-08-12 07:50:25.760] [INFO] server - routes are loaded
[2014-08-12 07:50:25.793] [INFO] server - http server started
[2014-08-12 07:50:30.968] [INFO] server - Route Sub System: EMAIL
Method: POST
URL:/email/insert/request/with_query
[2014-08-12 07:58:10.507] [INFO] server - express loaded
[2014-08-12 07:58:10.508] [INFO] server - routes are loaded
[2014-08-12 07:58:10.539] [INFO] server - http server started
[2014-08-12 07:58:15.087] [INFO] server - Route Sub System: EMAIL
Method: POST
URL:/email/insert/request/with_query
[2014-08-12 08:00:36.786] [INFO] server - express loaded
[2014-08-12 08:00:36.787] [INFO] server - routes are loaded
[2014-08-12 08:00:36.820] [INFO] server - http server started
[2014-08-12 08:00:44.185] [INFO] server - Route Sub System: EMAIL
Method: POST
URL:/email/insert/request/with_query
[2014-08-12 08:05:58.051] [INFO] server - express loaded
[2014-08-12 08:05:58.052] [INFO] server - routes are loaded
[2014-08-12 08:05:58.085] [INFO] server - http server started
[2014-08-12 08:06:26.909] [INFO] server - Route Sub System: EMAIL
Method: POST
URL:/email/insert/request/with_query
[2014-08-12 08:13:49.380] [INFO] server - express loaded
[2014-08-12 08:13:49.380] [INFO] server - routes are loaded
[2014-08-12 08:13:49.412] [INFO] server - http server started
[2014-08-12 08:13:54.595] [INFO] server - Route Sub System: EMAIL
Method: POST
URL:/email/insert/request/with_query
[2014-08-12 08:16:03.773] [INFO] server - express loaded
[2014-08-12 08:16:03.774] [INFO] server - routes are loaded
[2014-08-12 08:16:03.813] [INFO] server - http server started
[2014-08-12 08:16:08.598] [INFO] server - Route Sub System: EMAIL
Method: POST
URL:/email/insert/request/with_query
[2014-08-12 08:25:52.950] [INFO] server - express loaded
[2014-08-12 08:25:52.950] [INFO] server - routes are loaded
[2014-08-12 08:25:52.981] [INFO] server - http server started
[2014-08-12 08:26:06.555] [INFO] server - Route Sub System: EMAIL
Method: POST
URL:/email/insert/request/with_query
[2014-08-12 08:28:19.243] [INFO] server - express loaded
[2014-08-12 08:28:19.243] [INFO] server - routes are loaded
[2014-08-12 08:28:19.278] [INFO] server - http server started
[2014-08-12 08:28:23.362] [INFO] server - Route Sub System: EMAIL
Method: POST
URL:/email/insert/request/with_query
[2014-08-12 08:30:48.125] [INFO] server - express loaded
[2014-08-12 08:30:48.126] [INFO] server - routes are loaded
[2014-08-12 08:30:48.158] [INFO] server - http server started
[2014-08-12 08:30:54.023] [INFO] server - Route Sub System: EMAIL
Method: POST
URL:/email/insert/request/with_query
[2014-08-12 08:31:07.309] [INFO] server - express loaded
[2014-08-12 08:31:07.309] [INFO] server - routes are loaded
[2014-08-12 08:31:07.341] [INFO] server - http server started
[2014-08-12 08:31:10.093] [INFO] server - Route Sub System: EMAIL
Method: POST
URL:/email/insert/request/with_query
[2014-08-12 08:34:43.475] [INFO] server - express loaded
[2014-08-12 08:34:43.476] [INFO] server - routes are loaded
