[2014-08-08 05:50:16.171] [INFO] server - express loaded
[2014-08-08 05:50:16.172] [INFO] server - routes are loaded
[2014-08-08 05:50:16.202] [INFO] server - http server started
[2014-08-08 05:51:18.192] [INFO] server - Route Sub System: EMAIL
Method: POST
URL:/email/insert/request/with_query
[2014-08-08 05:52:39.110] [INFO] server - express loaded
[2014-08-08 05:52:39.110] [INFO] server - routes are loaded
[2014-08-08 05:52:39.144] [INFO] server - http server started
[2014-08-08 05:52:49.992] [INFO] server - Route Sub System: EMAIL
Method: POST
URL:/email/insert/request/with_query
[2014-08-08 05:53:54.321] [INFO] server - Route Sub System: EMAIL
Method: POST
URL:/email/insert/request/with_query
[2014-08-08 05:57:56.929] [INFO] server - express loaded
[2014-08-08 05:57:56.930] [INFO] server - routes are loaded
[2014-08-08 05:57:56.962] [INFO] server - http server started
[2014-08-08 05:58:46.295] [INFO] server - Route Sub System: EMAIL
Method: POST
URL:/email/insert/request/with_query
[2014-08-08 06:00:22.731] [INFO] server - express loaded
[2014-08-08 06:00:22.732] [INFO] server - routes are loaded
[2014-08-08 06:00:22.763] [INFO] server - http server started
[2014-08-08 06:00:52.838] [INFO] server - Route Sub System: EMAIL
Method: POST
URL:/email/insert/request/with_query
[2014-08-08 06:15:24.958] [INFO] server - Route Sub System: EMAIL
Method: POST
URL:/email/insert/request/with_query
[2014-08-08 06:18:54.600] [INFO] server - express loaded
[2014-08-08 06:18:54.600] [INFO] server - routes are loaded
[2014-08-08 06:18:54.629] [INFO] server - http server started
[2014-08-08 06:18:58.159] [INFO] server - Route Sub System: EMAIL
Method: POST
URL:/email/insert/request/with_query
[2014-08-08 06:24:29.383] [INFO] server - express loaded
[2014-08-08 06:24:29.384] [INFO] server - routes are loaded
[2014-08-08 06:24:29.412] [INFO] server - http server started
[2014-08-08 06:24:52.719] [INFO] server - Route Sub System: EMAIL
Method: POST
URL:/email/insert/request/with_query
[2014-08-08 06:25:42.793] [INFO] server - express loaded
[2014-08-08 06:25:42.793] [INFO] server - routes are loaded
[2014-08-08 06:25:42.831] [INFO] server - http server started
[2014-08-08 06:26:27.338] [INFO] server - Route Sub System: EMAIL
Method: POST
URL:/email/insert/request/with_query
[2014-08-08 06:26:47.004] [INFO] server - express loaded
[2014-08-08 06:26:47.004] [INFO] server - routes are loaded
[2014-08-08 06:26:47.035] [INFO] server - http server started
[2014-08-08 06:26:47.335] [INFO] server - Route Sub System: EMAIL
Method: POST
URL:/email/insert/request/with_query
[2014-08-08 06:29:53.488] [INFO] server - express loaded
[2014-08-08 06:29:53.489] [INFO] server - routes are loaded
[2014-08-08 06:29:53.527] [INFO] server - http server started
[2014-08-08 06:29:58.247] [INFO] server - Route Sub System: EMAIL
Method: POST
URL:/email/insert/request/with_query
[2014-08-08 06:32:55.373] [INFO] server - express loaded
[2014-08-08 06:32:55.374] [INFO] server - routes are loaded
[2014-08-08 06:32:55.406] [INFO] server - http server started
[2014-08-08 06:33:01.258] [INFO] server - Route Sub System: EMAIL
Method: POST
URL:/email/insert/request/with_query
[2014-08-08 06:35:49.051] [INFO] server - Route Sub System: EMAIL
Method: POST
URL:/email/insert/request/with_query
[2014-08-08 06:36:29.172] [INFO] server - express loaded
[2014-08-08 06:36:29.172] [INFO] server - routes are loaded
[2014-08-08 06:36:29.198] [INFO] server - http server started
[2014-08-08 06:36:31.608] [INFO] server - Route Sub System: EMAIL
Method: POST
URL:/email/insert/request/with_query
[2014-08-08 06:40:28.361] [INFO] server - express loaded
[2014-08-08 06:40:28.361] [INFO] server - routes are loaded
[2014-08-08 06:40:28.391] [INFO] server - http server started
[2014-08-08 06:40:32.490] [INFO] server - Route Sub System: EMAIL
Method: POST
URL:/email/insert/request/with_query
[2014-08-08 06:42:53.333] [INFO] server - express loaded
[2014-08-08 06:42:53.334] [INFO] server - routes are loaded
[2014-08-08 06:42:53.363] [INFO] server - http server started
[2014-08-08 06:43:18.673] [INFO] server - Route Sub System: EMAIL
Method: POST
URL:/email/request/list
[2014-08-08 06:43:51.492] [INFO] server - express loaded
[2014-08-08 06:43:51.493] [INFO] server - routes are loaded
[2014-08-08 06:43:51.523] [INFO] server - http server started
[2014-08-08 06:43:52.167] [INFO] server - Route Sub System: EMAIL
Method: POST
URL:/email/request/list
[2014-08-08 06:45:13.231] [INFO] server - express loaded
[2014-08-08 06:45:13.232] [INFO] server - routes are loaded
[2014-08-08 06:45:13.277] [INFO] server - http server started
[2014-08-08 06:45:22.075] [INFO] server - Route Sub System: EMAIL
Method: GET
URL:/email/request/list
[2014-08-08 06:49:26.810] [INFO] server - express loaded
[2014-08-08 06:49:26.810] [INFO] server - routes are loaded
[2014-08-08 06:49:26.839] [INFO] server - http server started
[2014-08-08 06:49:37.663] [INFO] server - Route Sub System: EMAIL
Method: POST
URL:/email/insert/request/with_query
[2014-08-08 08:45:11.625] [INFO] server - express loaded
[2014-08-08 08:45:11.626] [INFO] server - routes are loaded
[2014-08-08 08:45:11.658] [INFO] server - http server started
[2014-08-08 08:45:28.193] [INFO] server - Route Sub System: EMAIL
Method: GET
URL:/email/request/list
[2014-08-08 08:51:26.103] [INFO] server - express loaded
[2014-08-08 08:51:26.103] [INFO] server - routes are loaded
[2014-08-08 08:51:26.137] [INFO] server - http server started
[2014-08-08 08:51:31.656] [INFO] server - Route Sub System: EMAIL
Method: GET
URL:/email/request/list
[2014-08-08 08:51:57.211] [INFO] server - express loaded
[2014-08-08 08:51:57.211] [INFO] server - routes are loaded
[2014-08-08 08:51:57.243] [INFO] server - http server started
[2014-08-08 08:52:02.681] [INFO] server - Route Sub System: EMAIL
Method: GET
URL:/email/request/list
[2014-08-08 08:52:48.263] [INFO] server - express loaded
[2014-08-08 08:52:48.264] [INFO] server - routes are loaded
[2014-08-08 08:52:48.296] [INFO] server - http server started
[2014-08-08 08:52:52.135] [INFO] server - Route Sub System: EMAIL
Method: GET
URL:/email/request/list
[2014-08-08 08:53:40.340] [INFO] server - express loaded
[2014-08-08 08:53:40.341] [INFO] server - routes are loaded
[2014-08-08 08:53:40.378] [INFO] server - http server started
[2014-08-08 08:53:43.586] [INFO] server - Route Sub System: EMAIL
Method: GET
URL:/email/request/list
[2014-08-08 08:53:53.340] [INFO] server - Route Sub System: EMAIL
Method: GET
URL:/email/request/list
[2014-08-08 09:03:39.727] [INFO] server - express loaded
[2014-08-08 09:03:39.728] [INFO] server - routes are loaded
[2014-08-08 09:03:39.763] [INFO] server - http server started
[2014-08-08 09:03:47.883] [INFO] server - express loaded
[2014-08-08 09:03:47.883] [INFO] server - routes are loaded
[2014-08-08 09:03:47.915] [INFO] server - http server started
[2014-08-08 09:03:54.131] [INFO] server - Route Sub System: EMAIL
Method: GET
URL:/email/request/list
[2014-08-08 09:05:15.997] [INFO] server - express loaded
[2014-08-08 09:05:15.997] [INFO] server - routes are loaded
[2014-08-08 09:05:16.041] [INFO] server - http server started
[2014-08-08 09:05:22.367] [INFO] server - Route Sub System: EMAIL
Method: GET
URL:/email/request/list
[2014-08-08 09:13:19.376] [INFO] server - express loaded
[2014-08-08 09:13:19.377] [INFO] server - routes are loaded
[2014-08-08 09:13:19.420] [INFO] server - http server started
[2014-08-08 09:13:21.470] [INFO] server - Route Sub System: EMAIL
Method: GET
URL:/email/request/list
[2014-08-08 09:14:00.111] [INFO] server - Route Sub System: EMAIL
Method: GET
URL:/email/request/list
[2014-08-08 09:14:53.539] [INFO] server - express loaded
[2014-08-08 09:14:53.540] [INFO] server - routes are loaded
[2014-08-08 09:14:53.571] [INFO] server - http server started
[2014-08-08 09:15:01.078] [INFO] server - express loaded
[2014-08-08 09:15:01.079] [INFO] server - routes are loaded
[2014-08-08 09:15:01.112] [INFO] server - http server started
[2014-08-08 09:15:05.276] [INFO] server - Route Sub System: EMAIL
Method: GET
URL:/email/request/list
[2014-08-08 09:17:37.126] [INFO] server - express loaded
[2014-08-08 09:17:37.126] [INFO] server - routes are loaded
[2014-08-08 09:17:37.157] [INFO] server - http server started
[2014-08-08 09:17:43.136] [INFO] server - Route Sub System: EMAIL
Method: GET
URL:/email/request/list
[2014-08-08 09:21:52.043] [INFO] server - express loaded
[2014-08-08 09:21:52.044] [INFO] server - routes are loaded
[2014-08-08 09:21:52.074] [INFO] server - http server started
[2014-08-08 09:21:54.684] [INFO] server - Route Sub System: EMAIL
Method: GET
URL:/email/request/list
[2014-08-08 09:26:26.123] [INFO] server - express loaded
[2014-08-08 09:26:26.123] [INFO] server - routes are loaded
[2014-08-08 09:26:26.154] [INFO] server - http server started
[2014-08-08 09:26:27.865] [INFO] server - Route Sub System: EMAIL
Method: GET
URL:/email/request/list
[2014-08-08 09:27:06.154] [INFO] server - express loaded
[2014-08-08 09:27:06.156] [INFO] server - routes are loaded
[2014-08-08 09:27:06.187] [INFO] server - http server started
[2014-08-08 09:27:08.859] [INFO] server - Route Sub System: EMAIL
Method: GET
URL:/email/request/list
[2014-08-08 09:28:57.377] [INFO] server - express loaded
[2014-08-08 09:28:57.377] [INFO] server - routes are loaded
[2014-08-08 09:28:57.413] [INFO] server - http server started
[2014-08-08 09:29:00.623] [INFO] server - Route Sub System: EMAIL
Method: GET
URL:/email/request/list
[2014-08-08 09:31:41.805] [INFO] server - express loaded
[2014-08-08 09:31:41.805] [INFO] server - routes are loaded
[2014-08-08 09:31:41.837] [INFO] server - http server started
[2014-08-08 09:31:45.484] [INFO] server - Route Sub System: EMAIL
Method: GET
URL:/email/request/list
[2014-08-08 09:37:06.643] [INFO] server - express loaded
[2014-08-08 09:37:06.644] [INFO] server - routes are loaded
[2014-08-08 09:37:06.676] [INFO] server - http server started
[2014-08-08 09:37:13.032] [INFO] server - Route Sub System: EMAIL
Method: GET
URL:/email/request/list
[2014-08-08 09:38:04.078] [INFO] server - express loaded
[2014-08-08 09:38:04.079] [INFO] server - routes are loaded
[2014-08-08 09:38:04.114] [INFO] server - http server started
[2014-08-08 09:38:06.815] [INFO] server - Route Sub System: EMAIL
Method: GET
URL:/email/request/list
[2014-08-08 09:41:55.457] [INFO] server - express loaded
[2014-08-08 09:41:55.457] [INFO] server - routes are loaded
[2014-08-08 09:41:55.487] [INFO] server - http server started
[2014-08-08 09:41:55.599] [INFO] server - Route Sub System: EMAIL
Method: GET
URL:/email/request/list
[2014-08-08 10:00:08.296] [INFO] server - express loaded
[2014-08-08 10:00:08.297] [INFO] server - routes are loaded
[2014-08-08 10:00:08.330] [INFO] server - http server started
[2014-08-09 08:24:51.213] [INFO] server - express loaded
[2014-08-09 08:24:51.214] [INFO] server - routes are loaded
[2014-08-09 08:24:51.245] [INFO] server - http server started
[2014-08-09 08:25:20.138] [INFO] server - Route Sub System: EMAIL
Method: GET
URL:/email/create/spool
[2014-08-09 08:26:31.516] [INFO] server - express loaded
[2014-08-09 08:26:31.517] [INFO] server - routes are loaded
[2014-08-09 08:26:31.551] [INFO] server - http server started
[2014-08-09 08:26:39.171] [INFO] server - Route Sub System: EMAIL
Method: GET
URL:/email/create/spool
[2014-08-09 08:27:48.611] [INFO] server - express loaded
[2014-08-09 08:27:48.612] [INFO] server - routes are loaded
[2014-08-09 08:27:48.638] [INFO] server - http server started
[2014-08-09 08:27:58.853] [INFO] server - Route Sub System: EMAIL
Method: GET
URL:/email/create/spool
[2014-08-09 08:30:22.991] [INFO] server - express loaded
[2014-08-09 08:30:22.991] [INFO] server - routes are loaded
[2014-08-09 08:30:23.021] [INFO] server - http server started
[2014-08-09 08:30:29.866] [INFO] server - Route Sub System: EMAIL
Method: GET
URL:/email/request/list
[2014-08-09 08:34:47.363] [INFO] server - express loaded
[2014-08-09 08:34:47.363] [INFO] server - routes are loaded
[2014-08-09 08:34:47.392] [INFO] server - http server started
[2014-08-09 08:34:58.360] [INFO] server - Route Sub System: EMAIL
Method: GET
URL:/email/request/list
[2014-08-09 08:35:35.992] [INFO] server - Route Sub System: EMAIL
Method: GET
URL:/email/request/list
[2014-08-09 08:35:54.114] [INFO] server - express loaded
[2014-08-09 08:35:54.115] [INFO] server - routes are loaded
[2014-08-09 08:35:54.173] [INFO] server - http server started
[2014-08-09 08:36:02.596] [INFO] server - Route Sub System: EMAIL
Method: GET
URL:/email/request/list
[2014-08-09 08:41:44.088] [INFO] server - express loaded
[2014-08-09 08:41:44.088] [INFO] server - routes are loaded
[2014-08-09 08:41:44.120] [INFO] server - http server started
[2014-08-09 08:41:49.415] [INFO] server - Route Sub System: EMAIL
Method: GET
URL:/email/request/list
[2014-08-09 08:42:13.367] [INFO] server - express loaded
[2014-08-09 08:42:13.368] [INFO] server - routes are loaded
[2014-08-09 08:42:13.398] [INFO] server - http server started
[2014-08-09 08:42:17.317] [INFO] server - Route Sub System: EMAIL
Method: GET
URL:/email/request/list
[2014-08-09 08:51:48.793] [INFO] server - express loaded
[2014-08-09 08:51:48.794] [INFO] server - routes are loaded
[2014-08-09 08:51:48.823] [INFO] server - http server started
[2014-08-09 08:51:55.002] [INFO] server - Route Sub System: EMAIL
Method: GET
URL:/email/request/list
[2014-08-09 08:52:21.975] [INFO] server - express loaded
[2014-08-09 08:52:21.975] [INFO] server - routes are loaded
[2014-08-09 08:52:22.003] [INFO] server - http server started
[2014-08-09 08:52:33.460] [INFO] server - Route Sub System: EMAIL
Method: GET
URL:/email/request/list
[2014-08-09 08:53:00.777] [INFO] server - Route Sub System: EMAIL
Method: GET
URL:/email/create/spool
[2014-08-09 08:55:00.783] [INFO] server - Route Sub System: EMAIL
Method: GET
URL:/email/create/spool
[2014-08-09 09:01:38.220] [INFO] server - express loaded
[2014-08-09 09:01:38.220] [INFO] server - routes are loaded
[2014-08-09 09:01:38.258] [INFO] server - http server started
[2014-08-09 09:01:41.565] [INFO] server - Route Sub System: EMAIL
Method: GET
URL:/email/create/spool
[2014-08-09 09:03:51.921] [INFO] server - express loaded
[2014-08-09 09:03:51.922] [INFO] server - routes are loaded
[2014-08-09 09:03:51.948] [INFO] server - http server started
[2014-08-09 09:03:55.560] [INFO] server - Route Sub System: EMAIL
Method: GET
URL:/email/create/spool
[2014-08-09 09:04:55.287] [INFO] server - express loaded
[2014-08-09 09:04:55.288] [INFO] server - routes are loaded
[2014-08-09 09:04:55.321] [INFO] server - http server started
[2014-08-09 09:04:57.981] [INFO] server - Route Sub System: EMAIL
Method: GET
URL:/email/create/spool
[2014-08-09 22:27:36.797] [INFO] server - express loaded
[2014-08-09 22:27:36.797] [INFO] server - routes are loaded
[2014-08-09 22:27:36.828] [INFO] server - http server started
[2014-08-09 22:28:09.228] [INFO] server - Route Sub System: EMAIL
Method: POST
URL:/email/insert/request/with_query
[2014-08-09 22:30:04.269] [INFO] server - express loaded
[2014-08-09 22:30:04.270] [INFO] server - routes are loaded
[2014-08-09 22:30:04.298] [INFO] server - http server started
[2014-08-09 22:30:20.974] [INFO] server - Route Sub System: EMAIL
Method: POST
URL:/email/insert/request/with_query
[2014-08-09 22:32:25.620] [INFO] server - express loaded
[2014-08-09 22:32:25.621] [INFO] server - routes are loaded
[2014-08-09 22:32:25.655] [INFO] server - http server started
[2014-08-09 22:32:32.566] [INFO] server - Route Sub System: EMAIL
Method: POST
URL:/email/insert/request/with_query
[2014-08-09 22:33:09.074] [INFO] server - express loaded
[2014-08-09 22:33:09.075] [INFO] server - routes are loaded
[2014-08-09 22:33:09.111] [INFO] server - http server started
[2014-08-09 22:33:12.199] [INFO] server - Route Sub System: EMAIL
Method: POST
URL:/email/insert/request/with_query
[2014-08-09 22:35:21.366] [INFO] server - express loaded
[2014-08-09 22:35:21.367] [INFO] server - routes are loaded
[2014-08-09 22:35:21.404] [INFO] server - http server started
[2014-08-09 22:35:24.560] [INFO] server - Route Sub System: EMAIL
Method: POST
URL:/email/insert/request/with_query
[2014-08-09 22:44:16.504] [INFO] server - express loaded
[2014-08-09 22:44:16.504] [INFO] server - routes are loaded
[2014-08-09 22:44:16.531] [INFO] server - http server started
[2014-08-09 22:44:26.089] [INFO] server - Route Sub System: EMAIL
Method: POST
URL:/email/insert/request/with_query
[2014-08-09 22:53:29.232] [INFO] server - express loaded
[2014-08-09 22:53:29.233] [INFO] server - routes are loaded
[2014-08-09 22:53:29.263] [INFO] server - http server started
[2014-08-09 22:53:36.439] [INFO] server - Route Sub System: EMAIL
Method: POST
URL:/email/insert/request/with_query
[2014-08-09 22:54:10.853] [INFO] server - express loaded
[2014-08-09 22:54:10.854] [INFO] server - routes are loaded
[2014-08-09 22:54:10.884] [INFO] server - http server started
[2014-08-09 22:54:45.052] [INFO] server - Route Sub System: EMAIL
Method: POST
URL:/email/insert/request/with_query
[2014-08-09 22:57:57.362] [INFO] server - express loaded
[2014-08-09 22:57:57.363] [INFO] server - routes are loaded
[2014-08-09 22:57:57.391] [INFO] server - http server started
[2014-08-09 22:58:03.119] [INFO] server - Route Sub System: EMAIL
Method: POST
URL:/email/insert/request/with_query
[2014-08-09 23:02:04.202] [INFO] server - express loaded
[2014-08-09 23:02:04.202] [INFO] server - routes are loaded
[2014-08-09 23:02:04.234] [INFO] server - http server started
[2014-08-09 23:02:04.371] [INFO] server - Route Sub System: EMAIL
Method: POST
URL:/email/insert/request/with_query
[2014-08-09 23:29:11.248] [INFO] server - express loaded
[2014-08-09 23:29:11.249] [INFO] server - routes are loaded
[2014-08-09 23:29:11.280] [INFO] server - http server started
[2014-08-09 23:30:05.990] [INFO] server - Route Sub System: EMAIL
Method: GET
URL:/email/create/spool
[2014-08-09 23:51:50.946] [INFO] server - express loaded
[2014-08-09 23:51:50.947] [INFO] server - routes are loaded
[2014-08-09 23:51:50.979] [INFO] server - http server started
[2014-08-09 23:52:04.475] [INFO] server - Route Sub System: HELP
Method: GET
URL:/help/
[2014-08-09 23:52:24.354] [INFO] server - Route Sub System: EMAIL
Method: GET
URL:/email/send/email
[2014-08-09 23:53:12.211] [INFO] server - express loaded
[2014-08-09 23:53:12.211] [INFO] server - routes are loaded
[2014-08-09 23:53:12.243] [INFO] server - http server started
[2014-08-09 23:53:21.075] [INFO] server - Route Sub System: EMAIL
Method: GET
URL:/email/send/email/batch
[2014-08-09 23:59:29.002] [INFO] server - express loaded
[2014-08-09 23:59:29.004] [INFO] server - routes are loaded
[2014-08-09 23:59:29.034] [INFO] server - http server started
[2014-08-09 23:59:35.915] [INFO] server - Route Sub System: EMAIL
Method: GET
URL:/email/send/email/batch
[2014-08-10 00:00:18.838] [INFO] server - express loaded
[2014-08-10 00:00:18.838] [INFO] server - routes are loaded
[2014-08-10 00:00:18.872] [INFO] server - http server started
[2014-08-10 00:00:20.773] [INFO] server - Route Sub System: EMAIL
Method: GET
URL:/email/send/email/batch
[2014-08-10 00:23:29.812] [INFO] server - express loaded
[2014-08-10 00:23:29.813] [INFO] server - routes are loaded
[2014-08-10 00:23:29.845] [INFO] server - http server started
[2014-08-10 00:23:35.754] [INFO] server - Route Sub System: EMAIL
Method: GET
URL:/email/send/email/batch
[2014-08-10 06:04:01.514] [INFO] server - express loaded
[2014-08-10 06:04:01.515] [INFO] server - routes are loaded
[2014-08-10 06:04:01.546] [INFO] server - http server started
[2014-08-10 06:05:15.627] [INFO] server - express loaded
[2014-08-10 06:05:15.628] [INFO] server - routes are loaded
[2014-08-10 06:05:15.660] [INFO] server - http server started
[2014-08-10 06:05:30.847] [INFO] server - Route Sub System: EMAIL
Method: POST
URL:/email/insert/request/with_query
[2014-08-10 06:06:03.490] [INFO] server - Route Sub System: EMAIL
Method: GET
URL:/email/send/email/batch
[2014-08-10 11:06:44.897] [INFO] server - express loaded
[2014-08-10 11:06:44.898] [INFO] server - routes are loaded
[2014-08-10 11:06:44.929] [INFO] server - http server started
[2014-08-11 05:06:35.355] [INFO] server - express loaded
[2014-08-11 05:06:35.356] [INFO] server - routes are loaded
[2014-08-11 05:06:35.387] [INFO] server - http server started
[2014-08-11 05:06:39.765] [INFO] server - Route Sub System: EMAIL
Method: POST
URL:/email/insert/request/with_query
